<svg width="183" height="29" viewBox="0 0 183 29" fill="none" xmlns="http://www.w3.org/2000/svg">
<path d="M61.7867 0C62.9348 0 63.8341 0.350541 64.4843 1.05162C65.1448 1.75271 65.475 2.72304 65.475 3.96264C65.475 5.20223 65.1448 6.17257 64.4843 6.87365C63.8341 7.57473 62.9348 7.92527 61.7867 7.92527C60.6385 7.92527 59.7342 7.57473 59.0738 6.87365C58.4235 6.17257 58.0984 5.20223 58.0984 3.96264C58.0984 2.72304 58.4235 1.75271 59.0738 1.05162C59.7342 0.350541 60.6385 0 61.7867 0ZM61.7867 1.05162C61.0145 1.05162 60.4099 1.31072 59.973 1.82891C59.5361 2.3471 59.3177 3.05834 59.3177 3.96264C59.3177 4.86693 59.5361 5.57817 59.973 6.09637C60.4099 6.61456 61.0145 6.87365 61.7867 6.87365C62.5589 6.87365 63.1635 6.61456 63.6004 6.09637C64.0373 5.57817 64.2557 4.86693 64.2557 3.96264C64.2557 3.05834 64.0373 2.3471 63.6004 1.82891C63.1635 1.31072 62.5589 1.05162 61.7867 1.05162Z" fill="black"/>
<path d="M71.5927 0C72.6595 0 73.5029 0.355622 74.1227 1.06686C74.7526 1.76795 75.0676 2.7332 75.0676 3.96264C75.0676 5.19207 74.7526 6.16241 74.1227 6.87365C73.5029 7.57473 72.6595 7.92527 71.5927 7.92527C71.0338 7.92527 70.5309 7.80335 70.0838 7.55949C69.6469 7.31564 69.3065 6.9905 69.0627 6.58407V10.9735H67.8434V0.15241H68.9103L68.9865 1.47837C69.21 1.0313 69.5504 0.675681 70.0076 0.411506C70.475 0.137169 71.0034 0 71.5927 0ZM71.4555 6.85841C72.1972 6.85841 72.7815 6.59932 73.2082 6.08112C73.6349 5.55277 73.8483 4.84661 73.8483 3.96264C73.8483 3.07866 73.6349 2.37758 73.2082 1.85939C72.7815 1.33104 72.1972 1.06686 71.4555 1.06686C70.7239 1.06686 70.1397 1.32088 69.7028 1.82891C69.276 2.33694 69.0627 3.0177 69.0627 3.87119V4.05408C69.0627 4.90757 69.276 5.58834 69.7028 6.09637C70.1397 6.6044 70.7239 6.85841 71.4555 6.85841Z" fill="black"/>
<path d="M83.9817 3.56637C83.9817 3.85087 83.9614 4.13537 83.9208 4.41986H78.175C78.2461 5.19207 78.5001 5.79155 78.937 6.21829C79.3841 6.64504 79.9581 6.85841 80.6592 6.85841C81.2181 6.85841 81.6804 6.76189 82.0461 6.56883C82.4221 6.37578 82.6761 6.09637 82.8082 5.73058L83.8293 6.26402C83.5245 6.80253 83.1181 7.21403 82.6101 7.49853C82.102 7.78303 81.4518 7.92527 80.6592 7.92527C79.5111 7.92527 78.6068 7.57473 77.9463 6.87365C77.2961 6.17257 76.9709 5.20223 76.9709 3.96264C76.9709 2.72304 77.2808 1.75271 77.9006 1.05162C78.5306 0.350541 79.4196 0 80.5678 0C81.279 0 81.8937 0.15749 82.4119 0.472469C82.9301 0.787448 83.3213 1.21419 83.5855 1.75271C83.8497 2.29122 83.9817 2.89577 83.9817 3.56637ZM80.5678 1.06686C79.8972 1.06686 79.3536 1.265 78.937 1.66126C78.5306 2.05752 78.2816 2.61636 78.1902 3.33776H82.8082C82.7269 2.62652 82.4932 2.07276 82.1071 1.6765C81.721 1.27008 81.2079 1.06686 80.5678 1.06686Z" fill="black"/>
<path d="M90.0027 0C90.8664 0 91.5776 0.248935 92.1365 0.746805C92.6953 1.24467 92.9747 1.961 92.9747 2.89577V7.77287H91.7554V3.32252C91.7554 2.52999 91.5827 1.95592 91.2372 1.6003C90.9019 1.24467 90.4498 1.06686 89.8808 1.06686C89.4744 1.06686 89.0934 1.15831 88.7377 1.3412C88.3821 1.51393 88.0875 1.80351 87.8538 2.20993C87.6302 2.6062 87.5185 3.10915 87.5185 3.71878V7.77287H86.2992V0.15241H87.3661L87.4423 1.3412C87.6963 0.883974 88.0468 0.548674 88.4939 0.335301C88.941 0.111767 89.4439 0 90.0027 0Z" fill="black"/>
<path d="M103.521 7.92527C102.789 7.92527 102.129 7.78303 101.54 7.49853C100.95 7.20387 100.518 6.77205 100.244 6.20305L101.235 5.51721C101.407 5.96428 101.707 6.29958 102.134 6.52311C102.561 6.74664 103.064 6.85841 103.643 6.85841C104.242 6.85841 104.699 6.75172 105.014 6.53835C105.329 6.32498 105.487 6.05572 105.487 5.73058C105.487 5.43593 105.34 5.20223 105.045 5.0295C104.75 4.84661 104.232 4.68912 103.49 4.55703C102.759 4.42494 102.18 4.26746 101.753 4.08456C101.326 3.89151 101.016 3.65274 100.823 3.36824C100.63 3.07358 100.534 2.71288 100.534 2.28614C100.534 1.86955 100.656 1.48853 100.899 1.14307C101.143 0.797609 101.494 0.523272 101.951 0.32006C102.408 0.106687 102.937 0 103.536 0C104.349 0 104.999 0.15241 105.487 0.457228C105.985 0.751886 106.34 1.20911 106.554 1.82891L105.517 2.43855C105.355 1.95084 105.106 1.6003 104.771 1.38692C104.445 1.17355 104.034 1.06686 103.536 1.06686C103.038 1.06686 102.617 1.17863 102.271 1.40216C101.926 1.6257 101.753 1.88479 101.753 2.17945C101.753 2.51475 101.9 2.77385 102.195 2.95674C102.5 3.13963 103.038 3.29712 103.81 3.42921C104.867 3.60194 105.614 3.86103 106.051 4.20649C106.488 4.55195 106.706 5.03966 106.706 5.66962C106.706 6.10653 106.574 6.49771 106.31 6.84317C106.056 7.17847 105.685 7.44265 105.197 7.6357C104.72 7.82875 104.161 7.92527 103.521 7.92527Z" fill="black"/>
<path d="M112.183 0C113.331 0 114.23 0.350541 114.881 1.05162C115.541 1.75271 115.871 2.72304 115.871 3.96264C115.871 5.20223 115.541 6.17257 114.881 6.87365C114.23 7.57473 113.331 7.92527 112.183 7.92527C111.035 7.92527 110.13 7.57473 109.47 6.87365C108.82 6.17257 108.495 5.20223 108.495 3.96264C108.495 2.72304 108.82 1.75271 109.47 1.05162C110.13 0.350541 111.035 0 112.183 0ZM112.183 1.05162C111.411 1.05162 110.806 1.31072 110.369 1.82891C109.932 2.3471 109.714 3.05834 109.714 3.96264C109.714 4.86693 109.932 5.57817 110.369 6.09637C110.806 6.61456 111.411 6.87365 112.183 6.87365C112.955 6.87365 113.56 6.61456 113.997 6.09637C114.433 5.57817 114.652 4.86693 114.652 3.96264C114.652 3.05834 114.433 2.3471 113.997 1.82891C113.56 1.31072 112.955 1.05162 112.183 1.05162Z" fill="black"/>
<path d="M124.839 0.15241V7.77287H123.772L123.696 6.61456C123.188 7.48837 122.278 7.92527 120.968 7.92527C120.145 7.92527 119.469 7.69666 118.941 7.23943C118.423 6.78221 118.163 6.08112 118.163 5.13619V0.15241H119.383V4.81613C119.383 5.55785 119.535 6.0862 119.84 6.40118C120.145 6.706 120.592 6.85841 121.181 6.85841C121.882 6.85841 122.461 6.64504 122.919 6.21829C123.386 5.79155 123.62 5.15143 123.62 4.29794V0.15241H124.839Z" fill="black"/>
<path d="M131.273 0C131.639 0 131.918 0.0508036 132.111 0.15241L131.867 1.3412C131.623 1.20911 131.303 1.14307 130.907 1.14307C130.582 1.14307 130.262 1.23959 129.947 1.43265C129.642 1.61554 129.388 1.90003 129.185 2.28614C128.992 2.66208 128.895 3.11931 128.895 3.65782V7.77287H127.676V0.15241H128.667L128.834 1.40216C129.261 0.467388 130.074 0 131.273 0Z" fill="black"/>
<path d="M136.875 0C137.637 0 138.277 0.177811 138.795 0.533433C139.324 0.878893 139.735 1.37676 140.03 2.02704L138.872 2.57572C138.546 1.56981 137.871 1.06686 136.844 1.06686C136.082 1.06686 135.483 1.32596 135.046 1.84415C134.619 2.35218 134.406 3.05834 134.406 3.96264C134.406 4.86693 134.619 5.57817 135.046 6.09637C135.483 6.6044 136.082 6.85841 136.844 6.85841C137.434 6.85841 137.906 6.72632 138.262 6.46215C138.628 6.18781 138.866 5.79663 138.978 5.2886L140.106 5.68486C139.842 6.3961 139.435 6.94986 138.887 7.34612C138.338 7.73222 137.667 7.92527 136.875 7.92527C135.727 7.92527 134.823 7.57473 134.162 6.87365C133.512 6.17257 133.187 5.20223 133.187 3.96264C133.187 2.72304 133.512 1.75271 134.162 1.05162C134.823 0.350541 135.727 0 136.875 0Z" fill="black"/>
<path d="M148.8 3.56637C148.8 3.85087 148.78 4.13537 148.739 4.41986H142.993C143.065 5.19207 143.319 5.79155 143.756 6.21829C144.203 6.64504 144.777 6.85841 145.478 6.85841C146.037 6.85841 146.499 6.76189 146.865 6.56883C147.241 6.37578 147.495 6.09637 147.627 5.73058L148.648 6.26402C148.343 6.80253 147.937 7.21403 147.429 7.49853C146.921 7.78303 146.27 7.92527 145.478 7.92527C144.33 7.92527 143.425 7.57473 142.765 6.87365C142.115 6.17257 141.789 5.20223 141.789 3.96264C141.789 2.72304 142.099 1.75271 142.719 1.05162C143.349 0.350541 144.238 0 145.386 0C146.098 0 146.712 0.15749 147.23 0.472469C147.749 0.787448 148.14 1.21419 148.404 1.75271C148.668 2.29122 148.8 2.89577 148.8 3.56637ZM145.386 1.06686C144.716 1.06686 144.172 1.265 143.756 1.66126C143.349 2.05752 143.1 2.61636 143.009 3.33776H147.627C147.545 2.62652 147.312 2.07276 146.926 1.6765C146.54 1.27008 146.026 1.06686 145.386 1.06686Z" fill="black"/>
<path d="M65.1092 21.3474C65.1092 21.6319 65.0889 21.9164 65.0482 22.2009H59.3024C59.3735 22.9731 59.6276 23.5726 60.0645 23.9994C60.5115 24.4261 61.0856 24.6395 61.7867 24.6395C62.3455 24.6395 62.8078 24.5429 63.1736 24.3499C63.5496 24.1568 63.8036 23.8774 63.9357 23.5116L64.9568 24.0451C64.652 24.5836 64.2456 24.9951 63.7375 25.2796C63.2295 25.5641 62.5792 25.7063 61.7867 25.7063C60.6385 25.7063 59.7342 25.3558 59.0738 24.6547C58.4235 23.9536 58.0984 22.9833 58.0984 21.7437C58.0984 20.5041 58.4083 19.5338 59.0281 18.8327C59.658 18.1316 60.5471 17.7811 61.6952 17.7811C62.4065 17.7811 63.0212 17.9386 63.5394 18.2535C64.0576 18.5685 64.4488 18.9953 64.7129 19.5338C64.9771 20.0723 65.1092 20.6768 65.1092 21.3474ZM61.6952 18.8479C61.0246 18.8479 60.4811 19.0461 60.0645 19.4423C59.658 19.8386 59.4091 20.3974 59.3177 21.1188H63.9357C63.8544 20.4076 63.6207 19.8538 63.2346 19.4576C62.8485 19.0511 62.3354 18.8479 61.6952 18.8479Z" fill="black"/>
<path d="M68.585 23.5116C68.585 23.8977 68.6409 24.167 68.7526 24.3194C68.8745 24.4617 69.093 24.5328 69.408 24.5328C69.6214 24.5328 69.8042 24.5175 69.9567 24.4871C70.1192 24.4566 70.3072 24.4007 70.5206 24.3194L70.3224 25.493C69.9871 25.6352 69.6112 25.7063 69.1946 25.7063C68.5748 25.7063 68.1125 25.5387 67.8077 25.2034C67.513 24.8681 67.3657 24.355 67.3657 23.6641V14.4281H68.585V23.5116Z" fill="black"/>
<path d="M78.6236 21.3474C78.6236 21.6319 78.6033 21.9164 78.5626 22.2009H72.8168C72.8879 22.9731 73.142 23.5726 73.5789 23.9994C74.0259 24.4261 74.6 24.6395 75.3011 24.6395C75.8599 24.6395 76.3222 24.5429 76.688 24.3499C77.064 24.1568 77.318 23.8774 77.4501 23.5116L78.4712 24.0451C78.1664 24.5836 77.76 24.9951 77.2519 25.2796C76.7439 25.5641 76.0936 25.7063 75.3011 25.7063C74.1529 25.7063 73.2486 25.3558 72.5882 24.6547C71.9379 23.9536 71.6128 22.9833 71.6128 21.7437C71.6128 20.5041 71.9227 19.5338 72.5425 18.8327C73.1724 18.1316 74.0615 17.7811 75.2096 17.7811C75.9209 17.7811 76.5356 17.9386 77.0538 18.2535C77.572 18.5685 77.9632 18.9953 78.2273 19.5338C78.4915 20.0723 78.6236 20.6768 78.6236 21.3474ZM75.2096 18.8479C74.539 18.8479 73.9955 19.0461 73.5789 19.4423C73.1724 19.8386 72.9235 20.3974 72.8321 21.1188H77.4501C77.3688 20.4076 77.1351 19.8538 76.749 19.4576C76.3629 19.0511 75.8498 18.8479 75.2096 18.8479Z" fill="black"/>
<path d="M84.1569 17.7811C84.9189 17.7811 85.5591 17.9589 86.0772 18.3145C86.6056 18.66 87.0171 19.1578 87.3118 19.8081L86.1535 20.3568C85.8283 19.3509 85.1526 18.8479 84.1264 18.8479C83.3644 18.8479 82.7649 19.107 82.328 19.6252C81.9012 20.1332 81.6879 20.8394 81.6879 21.7437C81.6879 22.648 81.9012 23.3592 82.328 23.8774C82.7649 24.3855 83.3644 24.6395 84.1264 24.6395C84.7157 24.6395 85.1882 24.5074 85.5438 24.2432C85.9096 23.9689 86.1484 23.5777 86.2601 23.0697L87.388 23.4659C87.1238 24.1772 86.7174 24.7309 86.1687 25.1272C85.62 25.5133 84.9494 25.7063 84.1569 25.7063C83.0087 25.7063 82.1045 25.3558 81.444 24.6547C80.7937 23.9536 80.4686 22.9833 80.4686 21.7437C80.4686 20.5041 80.7937 19.5338 81.444 18.8327C82.1045 18.1316 83.0087 17.7811 84.1569 17.7811Z" fill="black"/>
<path d="M94.2076 25.0205C93.6995 25.4777 93.0442 25.7063 92.2415 25.7063C91.6217 25.7063 91.1137 25.5387 90.7174 25.2034C90.3313 24.8681 90.1332 24.355 90.123 23.6641V18.9851H88.5989V17.9335H90.123V16.1046L91.3423 15.7693V17.9335H94.1618V18.9851H91.3423V23.4507C91.3423 23.8165 91.4439 24.0959 91.6471 24.2889C91.8605 24.4718 92.1399 24.5633 92.4853 24.5633C92.973 24.5633 93.4049 24.3753 93.7808 23.9994L94.2076 25.0205Z" fill="black"/>
<path d="M96.5386 16.4703C96.2643 16.4703 96.0407 16.3891 95.868 16.2265C95.7054 16.0538 95.6241 15.8302 95.6241 15.5559C95.6241 15.2816 95.7054 15.0631 95.868 14.9005C96.0407 14.7278 96.2643 14.6414 96.5386 14.6414C96.8129 14.6414 97.0314 14.7278 97.1939 14.9005C97.3667 15.0631 97.453 15.2816 97.453 15.5559C97.453 15.8302 97.3667 16.0538 97.1939 16.2265C97.0314 16.3891 96.8129 16.4703 96.5386 16.4703ZM97.1482 25.5539H95.9289V17.9335H97.1482V25.5539Z" fill="black"/>
<path d="M103.193 17.7811C104.341 17.7811 105.241 18.1316 105.891 18.8327C106.551 19.5338 106.881 20.5041 106.881 21.7437C106.881 22.9833 106.551 23.9536 105.891 24.6547C105.241 25.3558 104.341 25.7063 103.193 25.7063C102.045 25.7063 101.141 25.3558 100.48 24.6547C99.83 23.9536 99.5048 22.9833 99.5048 21.7437C99.5048 20.5041 99.83 19.5338 100.48 18.8327C101.141 18.1316 102.045 17.7811 103.193 17.7811ZM103.193 18.8327C102.421 18.8327 101.816 19.0918 101.379 19.61C100.943 20.1282 100.724 20.8394 100.724 21.7437C100.724 22.648 100.943 23.3592 101.379 23.8774C101.816 24.3956 102.421 24.6547 103.193 24.6547C103.965 24.6547 104.57 24.3956 105.007 23.8774C105.444 23.3592 105.662 22.648 105.662 21.7437C105.662 20.8394 105.444 20.1282 105.007 19.61C104.57 19.0918 103.965 18.8327 103.193 18.8327Z" fill="black"/>
<path d="M112.953 17.7811C113.817 17.7811 114.528 18.03 115.087 18.5279C115.646 19.0257 115.925 19.7421 115.925 20.6768V25.5539H114.706V21.1036C114.706 20.3111 114.533 19.737 114.188 19.3814C113.853 19.0257 113.4 18.8479 112.831 18.8479C112.425 18.8479 112.044 18.9394 111.688 19.1223C111.333 19.295 111.038 19.5846 110.804 19.991C110.581 20.3873 110.469 20.8902 110.469 21.4998V25.5539H109.25V17.9335H110.317L110.393 19.1223C110.647 18.665 110.997 18.3297 111.445 18.1164C111.892 17.8928 112.395 17.7811 112.953 17.7811Z" fill="black"/>
<path d="M126.471 25.7063C125.74 25.7063 125.079 25.5641 124.49 25.2796C123.901 24.9849 123.469 24.5531 123.195 23.9841L124.185 23.2983C124.358 23.7453 124.658 24.0806 125.085 24.3042C125.511 24.5277 126.014 24.6395 126.593 24.6395C127.193 24.6395 127.65 24.5328 127.965 24.3194C128.28 24.106 128.438 23.8368 128.438 23.5116C128.438 23.217 128.29 22.9833 127.996 22.8106C127.701 22.6277 127.183 22.4702 126.441 22.3381C125.709 22.206 125.13 22.0485 124.704 21.8656C124.277 21.6726 123.967 21.4338 123.774 21.1493C123.581 20.8546 123.484 20.4939 123.484 20.0672C123.484 19.6506 123.606 19.2696 123.85 18.9241C124.094 18.5787 124.444 18.3043 124.902 18.1011C125.359 17.8877 125.887 17.7811 126.487 17.7811C127.3 17.7811 127.95 17.9335 128.438 18.2383C128.935 18.5329 129.291 18.9902 129.504 19.61L128.468 20.2196C128.305 19.7319 128.057 19.3814 127.721 19.168C127.396 18.9546 126.985 18.8479 126.487 18.8479C125.989 18.8479 125.567 18.9597 125.222 19.1832C124.876 19.4068 124.704 19.6659 124.704 19.9605C124.704 20.2958 124.851 20.5549 125.146 20.7378C125.45 20.9207 125.989 21.0782 126.761 21.2103C127.818 21.383 128.565 21.6421 129.001 21.9876C129.438 22.333 129.657 22.8207 129.657 23.4507C129.657 23.8876 129.525 24.2788 129.261 24.6242C129.007 24.9595 128.636 25.2237 128.148 25.4168C127.67 25.6098 127.112 25.7063 126.471 25.7063Z" fill="black"/>
<path d="M134.352 26.8342C134.057 27.5657 133.727 28.0788 133.361 28.3735C132.996 28.6783 132.523 28.8307 131.944 28.8307C131.558 28.8307 131.233 28.7799 130.969 28.6783C130.715 28.5767 130.481 28.4141 130.268 28.1906L130.694 27.1542C130.989 27.5606 131.4 27.7639 131.929 27.7639C132.223 27.7639 132.483 27.6724 132.706 27.4895C132.94 27.3168 133.143 26.9967 133.316 26.5293L133.712 25.5387L130.527 17.9335H131.914L133.819 22.902L134.291 24.2585L134.84 22.7496L136.623 17.9335H137.934L134.352 26.8342Z" fill="black"/>
<path d="M142.01 25.7063C141.279 25.7063 140.618 25.5641 140.029 25.2796C139.439 24.9849 139.008 24.5531 138.733 23.9841L139.724 23.2983C139.897 23.7453 140.196 24.0806 140.623 24.3042C141.05 24.5277 141.553 24.6395 142.132 24.6395C142.731 24.6395 143.189 24.5328 143.504 24.3194C143.819 24.106 143.976 23.8368 143.976 23.5116C143.976 23.217 143.829 22.9833 143.534 22.8106C143.24 22.6277 142.721 22.4702 141.98 22.3381C141.248 22.206 140.669 22.0485 140.242 21.8656C139.815 21.6726 139.505 21.4338 139.312 21.1493C139.119 20.8546 139.023 20.4939 139.023 20.0672C139.023 19.6506 139.145 19.2696 139.389 18.9241C139.632 18.5787 139.983 18.3043 140.44 18.1011C140.897 17.8877 141.426 17.7811 142.025 17.7811C142.838 17.7811 143.488 17.9335 143.976 18.2383C144.474 18.5329 144.83 18.9902 145.043 19.61L144.007 20.2196C143.844 19.7319 143.595 19.3814 143.26 19.168C142.935 18.9546 142.523 18.8479 142.025 18.8479C141.527 18.8479 141.106 18.9597 140.76 19.1832C140.415 19.4068 140.242 19.6659 140.242 19.9605C140.242 20.2958 140.389 20.5549 140.684 20.7378C140.989 20.9207 141.527 21.0782 142.3 21.2103C143.356 21.383 144.103 21.6421 144.54 21.9876C144.977 22.333 145.195 22.8207 145.195 23.4507C145.195 23.8876 145.063 24.2788 144.799 24.6242C144.545 24.9595 144.174 25.2237 143.687 25.4168C143.209 25.6098 142.65 25.7063 142.01 25.7063Z" fill="black"/>
<path d="M152.12 25.0205C151.612 25.4777 150.957 25.7063 150.154 25.7063C149.534 25.7063 149.026 25.5387 148.63 25.2034C148.244 24.8681 148.046 24.355 148.035 23.6641V18.9851H146.511V17.9335H148.035V16.1046L149.255 15.7693V17.9335H152.074V18.9851H149.255V23.4507C149.255 23.8165 149.356 24.0959 149.56 24.2889C149.773 24.4718 150.052 24.5633 150.398 24.5633C150.886 24.5633 151.317 24.3753 151.693 23.9994L152.12 25.0205Z" fill="black"/>
<path d="M160.38 21.3474C160.38 21.6319 160.359 21.9164 160.319 22.2009H154.573C154.644 22.9731 154.898 23.5726 155.335 23.9994C155.782 24.4261 156.356 24.6395 157.057 24.6395C157.616 24.6395 158.078 24.5429 158.444 24.3499C158.82 24.1568 159.074 23.8774 159.206 23.5116L160.227 24.0451C159.923 24.5836 159.516 24.9951 159.008 25.2796C158.5 25.5641 157.85 25.7063 157.057 25.7063C155.909 25.7063 155.005 25.3558 154.344 24.6547C153.694 23.9536 153.369 22.9833 153.369 21.7437C153.369 20.5041 153.679 19.5338 154.299 18.8327C154.929 18.1316 155.818 17.7811 156.966 17.7811C157.677 17.7811 158.292 17.9386 158.81 18.2535C159.328 18.5685 159.719 18.9953 159.984 19.5338C160.248 20.0723 160.38 20.6768 160.38 21.3474ZM156.966 18.8479C156.295 18.8479 155.752 19.0461 155.335 19.4423C154.929 19.8386 154.68 20.3974 154.588 21.1188H159.206C159.125 20.4076 158.891 19.8538 158.505 19.4576C158.119 19.0511 157.606 18.8479 156.966 18.8479Z" fill="black"/>
<path d="M171.552 17.7811C172.06 17.7811 172.533 17.8877 172.97 18.1011C173.417 18.3043 173.777 18.6244 174.052 19.0613C174.326 19.4982 174.463 20.0367 174.463 20.6768V25.5539H173.244V20.7988C173.244 20.1383 173.076 19.6506 172.741 19.3356C172.416 19.0105 171.984 18.8479 171.446 18.8479C171.039 18.8479 170.663 18.9495 170.318 19.1527C169.982 19.3458 169.708 19.6354 169.495 20.0215C169.291 20.3974 169.19 20.8496 169.19 21.3779V25.5539H167.971V20.7988C167.971 20.1383 167.803 19.6506 167.468 19.3356C167.143 19.0105 166.711 18.8479 166.172 18.8479C165.806 18.8479 165.451 18.9445 165.105 19.1375C164.76 19.3204 164.475 19.61 164.252 20.0062C164.028 20.4025 163.917 20.8953 163.917 21.4846V25.5539H162.697V17.9335H163.764L163.84 19.1223C164.104 18.6752 164.45 18.3399 164.877 18.1164C165.314 17.8928 165.781 17.7811 166.279 17.7811C166.838 17.7811 167.351 17.9081 167.818 18.1621C168.296 18.4161 168.656 18.787 168.9 19.2747C169.124 18.787 169.49 18.4161 169.998 18.1621C170.506 17.9081 171.024 17.7811 171.552 17.7811Z" fill="black"/>
<path d="M179.815 25.7063C179.083 25.7063 178.423 25.5641 177.833 25.2796C177.244 24.9849 176.812 24.5531 176.538 23.9841L177.529 23.2983C177.701 23.7453 178.001 24.0806 178.428 24.3042C178.855 24.5277 179.357 24.6395 179.937 24.6395C180.536 24.6395 180.993 24.5328 181.308 24.3194C181.623 24.106 181.781 23.8368 181.781 23.5116C181.781 23.217 181.633 22.9833 181.339 22.8106C181.044 22.6277 180.526 22.4702 179.784 22.3381C179.053 22.206 178.473 22.0485 178.047 21.8656C177.62 21.6726 177.31 21.4338 177.117 21.1493C176.924 20.8546 176.827 20.4939 176.827 20.0672C176.827 19.6506 176.949 19.2696 177.193 18.9241C177.437 18.5787 177.788 18.3043 178.245 18.1011C178.702 17.8877 179.23 17.7811 179.83 17.7811C180.643 17.7811 181.293 17.9335 181.781 18.2383C182.279 18.5329 182.634 18.9902 182.848 19.61L181.811 20.2196C181.649 19.7319 181.4 19.3814 181.064 19.168C180.739 18.9546 180.328 18.8479 179.83 18.8479C179.332 18.8479 178.91 18.9597 178.565 19.1832C178.219 19.4068 178.047 19.6659 178.047 19.9605C178.047 20.2958 178.194 20.5549 178.489 20.7378C178.794 20.9207 179.332 21.0782 180.104 21.2103C181.161 21.383 181.908 21.6421 182.345 21.9876C182.782 22.333 183 22.8207 183 23.4507C183 23.8876 182.868 24.2788 182.604 24.6242C182.35 24.9595 181.979 25.2237 181.491 25.4168C181.014 25.6098 180.455 25.7063 179.815 25.7063Z" fill="black"/>
<path fill-rule="evenodd" clip-rule="evenodd" d="M0 3.19851C0 1.4449 1.42158 0.0233154 3.17519 0.0233154H18.012C19.7656 0.0233154 21.1871 1.4449 21.1871 3.19851V10.5664C21.1871 12.32 19.7656 13.7416 18.012 13.7416H3.17519C1.42158 13.7416 0 12.32 0 10.5664V3.19851ZM3.17519 1.29339C2.12302 1.29339 1.27008 2.14634 1.27008 3.19851V10.5664C1.27008 11.6185 2.12302 12.4715 3.17519 12.4715H18.012C19.0641 12.4715 19.9171 11.6185 19.9171 10.5664V3.19851C19.9171 2.14634 19.0641 1.29339 18.012 1.29339H3.17519Z" fill="black"/>
<path fill-rule="evenodd" clip-rule="evenodd" d="M23.9004 3.19777C23.9004 1.44417 25.322 0.022583 27.0756 0.022583H44.4525C44.8032 0.022583 45.0875 0.306899 45.0875 0.657621C45.0875 1.00834 44.8032 1.29266 44.4525 1.29266H27.0756C26.0234 1.29266 25.1705 2.14561 25.1705 3.19777V4.34155C25.1705 5.39372 26.0234 6.24667 27.0756 6.24667H41.9123C43.666 6.24667 45.0875 7.66825 45.0875 9.42186V10.5656C45.0875 12.3192 43.666 13.7408 41.9123 13.7408H28.5188C28.1681 13.7408 27.8838 13.4565 27.8838 13.1058C27.8838 12.7551 28.1681 12.4708 28.5188 12.4708H41.9123C42.9645 12.4708 43.8175 11.6178 43.8175 10.5656V9.42186C43.8175 8.36969 42.9645 7.51674 41.9123 7.51674H27.0756C25.322 7.51674 23.9004 6.09516 23.9004 4.34155V3.19777Z" fill="black"/>
<path fill-rule="evenodd" clip-rule="evenodd" d="M23.9004 15.6459C23.9004 13.8923 25.322 12.4707 27.0756 12.4707H40.4691C40.8198 12.4707 41.1041 12.755 41.1041 13.1057C41.1041 13.4565 40.8198 13.7408 40.4691 13.7408H27.0756C26.0234 13.7408 25.1705 14.5937 25.1705 15.6459V16.7897C25.1705 17.8418 26.0234 18.6948 27.0756 18.6948H41.9123C43.666 18.6948 45.0875 20.1164 45.0875 21.87V23.0138C45.0875 24.7674 43.666 26.1889 41.9123 26.1889H24.5354C24.1847 26.1889 23.9004 25.9046 23.9004 25.5539C23.9004 25.2032 24.1847 24.9189 24.5354 24.9189H41.9123C42.9645 24.9189 43.8175 24.0659 43.8175 23.0138V21.87C43.8175 20.8178 42.9645 19.9649 41.9123 19.9649H27.0756C25.322 19.9649 23.9004 18.5433 23.9004 16.7897V15.6459Z" fill="black"/>
<path fill-rule="evenodd" clip-rule="evenodd" d="M0 15.6459C0 13.8923 1.42158 12.4707 3.17519 12.4707H16.5687C16.9194 12.4707 17.2037 12.755 17.2037 13.1057C17.2037 13.4565 16.9194 13.7408 16.5687 13.7408H3.17519C2.12303 13.7408 1.27008 14.5937 1.27008 15.6459V18.6948H20.5C20.8507 18.6948 21.135 18.9791 21.135 19.3298C21.135 19.6805 20.8507 19.9649 20.5 19.9649H1.27008V23.0138C1.27008 24.0659 2.12303 24.9189 3.17519 24.9189H24.7845C25.1352 24.9189 25.4195 25.2032 25.4195 25.5539C25.4195 25.9046 25.1352 26.1889 24.7845 26.1889H3.17519C1.42158 26.1889 0 24.7674 0 23.0138V15.6459Z" fill="black"/>
</svg>
